20_vivado_sim/sha256_core_tb.vcd
$date
   Sun Jun  7 17:26:59 2026
$end
$version
  2022.2
$end
$timescale
  1ps
$end
$scope module sha256_core_tb $end
$var reg 1 ! CLK $end
$var reg 1 " RST $end
$var reg 1 # awvalid_i $end
$var reg 6 $ waddr_i [5:0] $end
$var reg 32 % wdata_i [31:0] $end
$var wire 1 & arvalid_i $end
$var wire 4 ' raddr_i [3:0] $end
$var wire 32 ( rdata_o [31:0] $end
$var integer 32 ) tc [31:0] $end
$var integer 32 * i [31:0] $end
$var integer 32 + base_in [31:0] $end
$var integer 32 , base_golden [31:0] $end
$var integer 32 - pass_count [31:0] $end
$var integer 32 . fail_count [31:0] $end
$var reg 32 / expected [31:0] $end
$var reg 32 0 actual [31:0] $end
$var reg 1 1 arvalid_req_r $end
$var reg 4 2 raddr_req_r [3:0] $end
$var reg 1 3 arvalid_ff_r $end
$var reg 4 4 raddr_ff_r [3:0] $end
$scope module dut $end
$var wire 1 5 clk_i $end
$var wire 1 6 rstn_i $end
$var wire 1 7 awvalid_i $end
$var wire 6 8 waddr_i [5:0] $end
$var wire 32 9 wdata_i [31:0] $end
$var wire 1 & arvalid_i $end
$var wire 4 ' raddr_i [3:0] $end
$var wire 32 ( rdata_o [31:0] $end
$var wire 1 : load_flag_w $end
$var wire 1 ; start_flag_w $end
$var wire 1 < done_flag_w $end
$var wire 1 = hash_valid_flag_w $end
$var wire 2 > state_w [1:0] $end
$var wire 1 ? hash256_valid_w $end
$var wire 1 @ CTRL_msg_valid_w $end
$var wire 1 A CTRL_MM_rd_en_w $end
$var wire 1 B Arbiter_msg_awvalid_w $end
$var wire 4 C Arbiter_msg_waddr_w [3:0] $end
$var wire 32 D Arbiter_msg_wdata_w [31:0] $end
$var wire 1 E Arbiter_hash256_arvalid_w $end
$var wire 3 F Arbiter_hash256_raddr_w [2:0] $end
$var wire 32 G Arbiter_hash256_rdata_w [31:0] $end
$var wire 512 H msg_512_w [511:0] $end
$var wire 256 I hash256_w [255:0] $end
$scope module u_arbiter $end
$var wire 1 5 clk_i $end
$var wire 1 6 rstn_i $end
$var wire 1 7 awvalid_i $end
$var wire 6 8 waddr_i [5:0] $end
$var wire 32 9 wdata_i [31:0] $end
$var wire 1 & arvalid_i $end
$var wire 6 J raddr_i [5:0] $end
$var wire 32 ( rdata_o [31:0] $end
$var wire 1 : load_flag_o $end
$var wire 1 ; start_flag_o $end
$var wire 1 < done_flag_o $end
$var wire 1 = hash_valid_flag_i $end
$var wire 2 > state_i [1:0] $end
$var wire 4 C Arbiter_msg_waddr_o [3:0] $end
$var wire 1 B Arbiter_msg_awvalid_o $end
$var wire 32 D Arbiter_msg_wdata_o [31:0] $end
$var wire 3 F Arbiter_hash256_raddr_o [2:0] $end
$var wire 1 E Arbiter_hash256_arvalid_o $end
$var wire 32 G Arbiter_hash256_rdata_i [31:0] $end
$var reg 1 K arvalid_r $end
$var reg 6 L raddr_r [5:0] $end
$upscope $end
$scope module u_controller $end
$var wire 1 5 clk_i $end
$var wire 1 6 rstn_i $end
$var wire 1 : load_flag_i $end
$var wire 1 ; start_flag_i $end
$var wire 1 < done_flag_i $end
$var wire 1 = hash256_valid_flag_o $end
$var wire 2 > state_o [1:0] $end
$var wire 1 A CTRL_MM_rd_en_o $end
$var wire 1 ? hash256_valid_i $end
$var wire 1 @ CTRL_msg_valid_o $end
$var reg 2 M current_state_r [1:0] $end
$var reg 2 N next_state_r [1:0] $end
$var reg 2 O CTRL_MBM_raddr_r [1:0] $end
$var reg 1 P msg_valid_pulse_r $end
$upscope $end
$scope module u_msg_mem $end
$var wire 1 5 clk_i $end
$var wire 4 C Arbiter_msg_waddr_i [3:0] $end
$var wire 1 B Arbiter_msg_awvalid_i $end
$var wire 32 D Arbiter_msg_wdata_i [31:0] $end
$var wire 1 A CTRL_MM_rd_en_i $end
$var wire 512 H msg_o [511:0] $end
$upscope $end
$scope module u_sha256_block $end
$var wire 1 5 clk_i $end
$var wire 1 6 rstn_i $end
$var wire 512 H M_i [511:0] $end
$var wire 1 @ M_valid_i $end
$var wire 256 I Hash_o [255:0] $end
$var wire 1 ? Hash_valid_o $end
$var wire 32 Q Wtm2_w [31:0] $end
$var wire 32 R sig0_Wtm15_w [31:0] $end
$var wire 32 S sig1_Wtm2_w [31:0] $end
$var wire 32 T Wtm15_w [31:0] $end
$var wire 32 U Wj_w [31:0] $end
$var wire 32 V Kj_w [31:0] $end
$var wire 32 W a_d_w [31:0] $end
$var wire 32 X b_d_w [31:0] $end
$var wire 32 Y c_d_w [31:0] $end
$var wire 32 Z d_d_w [31:0] $end
$var wire 32 [ e_d_w [31:0] $end
$var wire 32 \ f_d_w [31:0] $end
$var wire 32 ] g_d_w [31:0] $end
$var wire 32 ^ h_d_w [31:0] $end
$var reg 7 _ round_r [6:0] $end
$var reg 32 ` a_q_r [31:0] $end
$var reg 32 a b_q_r [31:0] $end
$var reg 32 b c_q_r [31:0] $end
$var reg 32 c d_q_r [31:0] $end
$var reg 32 d e_q_r [31:0] $end
$var reg 32 e f_q_r [31:0] $end
$var reg 32 f g_q_r [31:0] $end
$var reg 32 g h_q_r [31:0] $end
$scope module ME_unit $end
$var wire 1 5 clk_i $end
$var wire 512 H M_i [511:0] $end
$var wire 1 @ M_valid_i $end
$var wire 32 R sig0_Wtm15_i [31:0] $end
$var wire 32 S sig1_Wtm2_i [31:0] $end
$var wire 32 Q Wtm2_o [31:0] $end
$var wire 32 T Wtm15_o [31:0] $end
$var wire 32 U W_o [31:0] $end
$var reg 512 h W_stack_q [511:0] $end
$var wire 512 i W_stack_d [511:0] $end
$var wire 32 j Wtm7_w [31:0] $end
$var wire 32 k Wtm16_w [31:0] $end
$var wire 32 l Wt_next [31:0] $end
$upscope $end
$scope module ME_sigma0_u $end
$var wire 32 T x_i [31:0] $end
$var wire 32 R sigma0_o [31:0] $end
$var wire 32 m rotr7 [31:0] $end
$var wire 32 n rotr18 [31:0] $end
$var wire 32 o shr3 [31:0] $end
$upscope $end
$scope module ME_sigma1_u $end
$var wire 32 Q x_i [31:0] $end
$var wire 32 S sigma1_o [31:0] $end
$var wire 32 p rotr17 [31:0] $end
$var wire 32 q rotr19 [31:0] $end
$var wire 32 r shr10 [31:0] $end
$upscope $end
$scope module K_const $end
$var wire 1 5 clk_i $end
$var wire 1 @ rst_i $end
$var wire 32 V K_o [31:0] $end
$var reg 2048 s rom_q_r [2047:0] $end
$var wire 2048 t rom_d_w [2047:0] $end
$upscope $end
$scope module compression_round $end
$var wire 32 V Kj_i [31:0] $end
$var wire 32 U Wj_i [31:0] $end
$var wire 32 u a_in [31:0] $end
$var wire 32 v b_in [31:0] $end
$var wire 32 w c_in [31:0] $end
$var wire 32 x d_in [31:0] $end
$var wire 32 y e_in [31:0] $end
$var wire 32 z f_in [31:0] $end
$var wire 32 { g_in [31:0] $end
$var wire 32 | h_in [31:0] $end
$var wire 32 W a_out [31:0] $end
$var wire 32 X b_out [31:0] $end
$var wire 32 Y c_out [31:0] $end
$var wire 32 Z d_out [31:0] $end
$var wire 32 [ e_out [31:0] $end
$var wire 32 \ f_out [31:0] $end
$var wire 32 ] g_out [31:0] $end
$var wire 32 ^ h_out [31:0] $end
$var wire 32 } Ch_e_f_g_w [31:0] $end
$var wire 32 ~ Maj_a_b_c_w [31:0] $end
$var wire 32 !! S0_a_w [31:0] $end
$var wire 32 "! S1_e_w [31:0] $end
$scope module Ch $end
$var wire 32 y x_i [31:0] $end
$var wire 32 z y_i [31:0] $end
$var wire 32 { z_i [31:0] $end
$var wire 32 } Ch_o [31:0] $end
$upscope $end
$scope module Maj $end
$var wire 32 u x_i [31:0] $end
$var wire 32 v y_i [31:0] $end
$var wire 32 w z_i [31:0] $end
$var wire 32 ~ Maj_o [31:0] $end
$upscope $end
$scope module S0 $end
$var wire 32 u x_i [31:0] $end
$var wire 32 !! S0_o [31:0] $end
$var wire 32 #! rotr2 [31:0] $end
$var wire 32 $! rotr13 [31:0] $end
$var wire 32 %! rotr22 [31:0] $end
$upscope $end
$scope module S1 $end
$var wire 32 y x_i [31:0] $end
$var wire 32 "! S1_o [31:0] $end
$var wire 32 &! rotr6 [31:0] $end
$var wire 32 '! rotr11 [31:0] $end
$var wire 32 (! rotr25 [31:0] $end
$upscope $end
$scope module compression $end
$var wire 32 V Kj_i [31:0] $end
$var wire 32 U Wj_i [31:0] $end
$var wire 32 u a_in [31:0] $end
$var wire 32 v b_in [31:0] $end
$var wire 32 w c_in [31:0] $end
$var wire 32 x d_in [31:0] $end
$var wire 32 y e_in [31:0] $end
$var wire 32 z f_in [31:0] $end
$var wire 32 { g_in [31:0] $end
$var wire 32 | h_in [31:0] $end
$var wire 32 } Ch_e_f_g [31:0] $end
$var wire 32 ~ Maj_a_b_c [31:0] $end
$var wire 32 !! S0_a [31:0] $end
$var wire 32 "! S1_e [31:0] $end
$var wire 32 W a_out [31:0] $end
$var wire 32 X b_out [31:0] $end
$var wire 32 Y c_out [31:0] $end
$var wire 32 Z d_out [31:0] $end
$var wire 32 [ e_out [31:0] $end
$var wire 32 \ f_out [31:0] $end
$var wire 32 ] g_out [31:0] $end
$var wire 32 ^ h_out [31:0] $end
$var wire 32 )! temp1_w [31:0] $end
$var wire 32 *! temp2_w [31:0] $end
$upscope $end
$upscope $end
$upscope $end
$scope module u_hash_mem $end
$var wire 1 5 clk_i $end
$var wire 1 6 rstn_i $end
$var wire 4 +! Arbiter_hash256_raddr_i [3:0] $end
$var wire 1 E Arbiter_hash256_arvalid_i $end
$var reg 32 ,! Arbiter_hash256_rdata_o [31:0] $end
$var wire 256 I hash256_data_i [255:0] $end
$var wire 1 ? hash256_valid_i $end
$var integer 32 -! i [31:0] $end
$upscope $end
$upscope $end
$scope task write_reg $end
$var reg 6 .! addr [5:0] $end
$var reg 32 /! data [31:0] $end
$upscope $end
$scope task read_reg $end
$var reg 4 0! addr [3:0] $end
$var reg 32 1! data [31:0] $end
$upscope $end
$scope task wait_complete $end
$var reg 32 2! status [31:0] $end
$var integer 32 3! watchdog [31:0] $end
$upscope $end
$upscope $end
$enddefinitions $end
#0
$dumpvars
0!
bx !!
0"
bx "!
0#
bx #!
b0 $
bx $!
b0 %
bx %!
0&
bx &!
b0 '
bx '!
b0x (
bx (!
bx )
bx )!
bx *
bx *!
bx +
bz000 +!
bx ,
b0 ,!
b0 -
b1000 -!
b0 .
bx .!
b0 /
bx /!
b0 0
bx 0!
01
bx 1!
b0 2
bx 2!
03
bx 3!
b0 4
05
06
07
b0 8
b0 9
0:
0;
0<
x=
b0 >
x?
0@
0A
0B
b0 C
b0 D
0E
b0 F
b0 G
b0 H
bx I
bz0000 J
0K
b0 L
b0 M
b0 N
bx O
0P
bx Q
bx R
bx S
bx T
bx U
bx V
bx W
bx X
bx Y
bx Z
bx [
bx \
bx ]
bx ^
bx _
bx `
bx a
bx b
bx c
bx d
bx e
bx f
bx g
bx h
bx i
bx j
bx k
bx l
bx m
bx n
b0xxxxxxxxxxxxxxxxxxxxxxxxxxxxx o
bx p
bx q
b0xxxxxxxxxxxxxxxxxxxxxx r
bx s
bx t
bx u
bx v
bx w
bx x
bx y
bx z
bx {
bx |
bx }
bx ~
$end
#5000
1!
b1000 -!
15
#10000
0!
05
#15000
1!
b1000 -!
15
#20000
0!
05
#25000
1!
1"
15
16
bz0000 L
#30000
0!
05
#35000
1!
15
#40000
0!
05
#45000
1!
b0 +
b0 ,
b0 .!
b1 /!
15
#50000
0!
1#
b0 $
b1 %
05
17
b1 9
1:
0;
0<
0B
b1 N
#55000
1!
15
0:
0;
0<
b1 >
0B
b1 M
#60000
0!
0#
b0 $
b0 %
b110000 .!
b1001000011001010110110001101100 /!
05
07
b0 9
0:
0;
0<
0B
#65000
1!
15
#70000
0!
1#
b110000 $
b1001000011001010110110001101100 %
05
17
b110000 8
b1001000011001010110110001101100 9
0:
0;
0<
1B
b1001000011001010110110001101100 D
#75000
1!
15
#80000
0!
0#
b0 $
b0 %
b110001 .!
b1101111001000000101011101101111 /!
05
07
b0 8
b0 9
0:
0;
0<
0B
b0 D
#85000
1!
15
#90000
0!
1#
b110001 $
b1101111001000000101011101101111 %
05
17
b110001 8
b1101111001000000101011101101111 9
0:
0;
0<
1B
b1 C
b1101111001000000101011101101111 D
#95000
1!
15
#100000
0!
0#
b0 $
b0 %
b110010 .!
b1110010011011000110010000100001 /!
05
07
b0 8
b0 9
0:
0;
0<
0B
b0 C
b0 D
#105000
1!
15
#110000
0!
1#
b110010 $
b1110010011011000110010000100001 %
05
17
b110010 8
b1110010011011000110010000100001 9
0:
0;
0<
1B
b10 C
b1110010011011000110010000100001 D
#115000
1!
15
#120000
0!
0#
b0 $
b0 %
b110011 .!
b100000010010010111010000100000 /!
05
07
b0 8
b0 9
0:
0;
0<
0B
b0 C
b0 D
#125000
1!
15
#130000
0!
1#
b110011 $
b100000010010010111010000100000 %
05
17
b110011 8
b100000010010010111010000100000 9
0:
0;
0<
1B
b11 C
b100000010010010111010000100000 D
#135000
1!
15
#140000
0!
0#
b0 $
b0 %
b110100 .!
b1101001011100110010000001010011 /!
05
07
b0 8
b0 9
0:
0;
0<
0B
b0 C
b0 D
#145000
1!
15
#150000
0!
1#
b110100 $
b1101001011100110010000001010011 %
05
17
b110100 8
b1101001011100110010000001010011 9
0:
0;
0<
1B
b100 C
b1101001011100110010000001010011 D
#155000
1!
15
#160000
0!
0#
b0 $
b0 %
b110101 .!
b1001000010000010011001000110101 /!
05
07
b0 8
b0 9
0:
0;
0<
0B
b0 C
b0 D
#165000
1!
15
#170000
0!
1#
b110101 $
b1001000010000010011001000110101 %
05
17
b110101 8
b1001000010000010011001000110101 9
0:
0;
0<
1B
b101 C
b1001000010000010011001000110101 D
#175000
1!
15
#180000
0!
0#
b0 $
b0 %
b110110 .!
b110110001000000100100001100001 /!
05
07
b0 8
b0 9
0:
0;
0<
0B
b0 C
b0 D
#185000
1!
15
#190000
0!
1#
b110110 $
b110110001000000100100001100001 %
05
17
b110110 8
b110110001000000100100001100001 9
0:
0;
0<
1B
b110 C
b110110001000000100100001100001 D
#195000
1!
15
#200000
0!
0#
b0 $
b0 %
b110111 .!
b1110011011010000010000100100000 /!
05
07
b0 8
b0 9
0:
0;
0<
0B
b0 C
b0 D
#205000
1!
15
#210000
0!
1#
b110111 $
b1110011011010000010000100100000 %
05
17
b110111 8
b1110011011010000010000100100000 9
0:
0;
0<
1B
b111 C
b1110011011010000010000100100000 D
#215000
1!
15
#220000
0!
0#
b0 $
b0 %
b111000 .!
b1010000011010010110111001100101 /!
05
07
b0 8
b0 9
0:
0;
0<
0B
b0 C
b0 D
#225000
1!
15
#230000
0!
1#
b111000 $
b1010000011010010110111001100101 %
05
17
b111000 8
b1010000011010010110111001100101 9
0:
0;
0<
1B
b1000 C
b1010000011010010110111001100101 D
#235000
1!
15
#240000
0!
0#
b0 $
b0 %
b111001 .!
b1100001011100000111000001101100 /!
05
07
b0 8
b0 9
0:
0;
0<
0B
b0 C
b0 D
#245000
1!
15
#250000
0!
1#
b111001 $
b1100001011100000111000001101100 %
05
17
b111001 8
b1100001011100000111000001101100 9
0:
0;
0<
1B
b1001 C
b1100001011100000111000001101100 D
#255000
1!
15
#260000
0!
0#
b0 $
b0 %
b111010 .!
b1100101001000000110000101101011 /!
05
07
b0 8
b0 9
0:
0;
0<
0B
b0 C
b0 D
#265000
1!
15
#270000
0!
1#
b111010 $
b1100101001000000110000101101011 %
05
17
b111010 8
b1100101001000000110000101101011 9
0:
0;
0<
1B
b1010 C
b1100101001000000110000101101011 D
#275000
1!
15
#280000
0!
0#
b0 $
b0 %
b111011 .!
b1100001001000000101000001101000 /!
05
07
b0 8
b0 9
0:
0;
0<
0B
b0 C
b0 D
#285000
1!
15
#290000
0!
1#
b111011 $
b1100001001000000101000001101000 %
05
17
b111011 8
b1100001001000000101000001101000 9
0:
0;
0<
1B
b1011 C
b1100001001000000101000001101000 D
#295000
1!
15
#300000
0!
0#
b0 $
b0 %
b111100 .!
b1110101011011110110001100100000 /!
05
07
b0 8
b0 9
0:
0;
0<
0B
b0 C
b0 D
#305000
1!
15
#310000
0!
1#
b111100 $
b1110101011011110110001100100000 %
05
17
b111100 8
b1110101011011110110001100100000 9
0:
0;
0<
1B
b1100 C
b1110101011011110110001100100000 D
#315000
1!
15
#320000
0!
0#
b0 $
b0 %
b111101 .!
b1000001011011101000000000000000 /!
05
07
b0 8
b0 9
0:
0;
0<
0B
b0 C
b0 D
#325000
1!
15
#330000
0!
1#
b111101 $
b1000001011011101000000000000000 %
05
17
b111101 8
b1000001011011101000000000000000 9
0:
0;
0<
1B
b1101 C
b1000001011011101000000000000000 D
#335000
1!
15
#340000
0!
0#
b0 $
b0 %
b111110 .!
b0 /!
05
07
b0 8
b0 9
0:
0;
0<
0B
b0 C
b0 D
#345000
1!
15
#350000
0!
1#
b111110 $
b0 %
05
17
b111110 8
0:
0;
0<
1B
b1110 C
#355000
1!
15
#360000
0!
0#
b0 $
b0 %
b111111 .!
b110110000 /!
05
07
b0 8
0:
0;
0<
0B
b0 C
#365000
1!
15
#370000
0!
1#
b111111 $
b110110000 %
05
17
b111111 8
b110110000 9
0:
0;
0<
1B
b1111 C
b110110000 D
#375000
1!
15
#380000
0!
0#
b0 $
b0 %
b10000 *
b10000 .!
b1 /!
05
07
b0 8
b0 9
0:
0;
0<
0B
b0 C
b0 D
#385000
1!
15
#390000
0!
1#
b10000 $
b1 %
05
17
b10000 8
b1 9
0:
1;
0<
0B
b10 N
#395000
1!
15
0:
0;
0<
b10 >
1@
1A
0B
b1001000011001010110110001101100011011110010000001010111011011110111001001101100011001000010000100100000010010010111010000100000011010010111001100100000010100110100100001000001001100100011010100110110001000000100100001100001011100110110100000100001001000000101000001101001011011100110010101100001011100000111000001101100011001010010000001100001011010110110000100100000010100000110100001110101011011110110001100100000010000010110111010000000000000000000000000000000000000000000000000000000000000000000000110110000 H
b10 M
1P
#400000
0!
0#
b0 $
b0 %
b0 0!
b0 2!
b0 3!
05
07
b0 8
b0 9
0:
0;
0<
0B
#405000
1!
b11001110001000001011010001111110 !!
b110101100001110010011100101011 "!
b11011010100000100111100110011001 #!
b110011001110110101000001001111 $!
b100111100110011001110110101000 %!
b11111101010001000011100101001001 &!
b1001111111010100010000111001010 '!
b0 (
b10000111001010010011111110101000 (!
b111011110111010101100111010100 )!
b1000100100001001101011100101 *!
15
0=
0?
0@
0A
b0 H
b1101010000010011110011001100111001110110110011110101110100001010011110001101110111100110111001000100101010011111111010100111010010100010000111001010010011111110001101100000101011010001000110000011111100000111101100110101011010110111110000011001101000110010 I
0P
b0 Q
b11000110111000011001000110001011 R
b0 S
b1101111001000000101011101101111 T
b1001000011001010110110001101100 U
b1000010100010100010111110011000 V
b1000100011011011111010010111001 W
b1101010000010011110011001100111 X
b10111011011001111010111010000101 Y
b111100011011101111001101110010 Z
b11100001001011010100111100001110 [
b1010001000011100101001001111111 \
b10011011000001010110100010001100 ]
b11111100000111101100110101011 ^
b0 _
b1101010000010011110011001100111 `
b10111011011001111010111010000101 a
b111100011011101111001101110010 b
b10100101010011111111010100111010 c
b1010001000011100101001001111111 d
b10011011000001010110100010001100 e
b11111100000111101100110101011 f
b1011011111000001100110100011001 g
b1001000011001010110110001101100011011110010000001010111011011110111001001101100011001000010000100100000010010010111010000100000011010010111001100100000010100110100100001000001001100100011010100110110001000000100100001100001011100110110100000100001001000000101000001101001011011100110010101100001011100000111000001101100011001010010000001100001011010110110000100100000010100000110100001110101011011110110001100100000010000010110111010000000000000000000000000000000000000000000000000000000000000000000000110110000 h
b1101111001000000101011101101111011100100110110001100100001000010010000001001001011101000010000001101001011100110010000001010011010010000100000100110010001101010011011000100000010010000110000101110011011010000010000100100000010100000110100101101110011001010110000101110000011100000110110001100101001000000110000101101011011000010010000001010000011010000111010101101111011000110010000001000001011011101000000000000000000000000000000000000000000000000000000000000000000000011011000001110000101101110110111001100011 i
b1100001011100000111000001101100 j
b1001000011001010110110001101100 k
b1110000101101110110111001100011 l
b11011110110111100100000010101110 m
b10101110110111101101111001000 n
b1101111001000000101011101101 o
b0 p
b0 q
b0 r
b1000010100010100010111110011000011100010011011101000100100100011011010111000000111110111100111111101001101101011101101110100101001110010101011011000010010110110101100111110001000100011111000110010010001111111000001010100100101010110001110001011110110101011101100000000111101010101001100000010010100000110101101100000001001001000011000110000101101111100101010100001100011111011100001101110010101111100101110101110100100000001101111010110001111111101001101111011100000001101010011111000001100110111111000101110100111001001001101101101001110000011110111110111110010001111000011000001111110000011001110111000110001001000000110010100001110011000010110111101001001011000110111101001010011101001000010010101010010111001011000010101001110111000111011011111001100010001101101010011000001111100101000101010010101010000011000111000110011011011011000000000011001001111100100010111111010110010111111111000111110001101110000000001011111100111101010110100111100100010100011100000110110010100110001101010001000101000010100100101001011001110010011110110111000010101000010100101110000110110010000100111000010011010010110001101101111111000101001100111000000011010001001101100101000010100111001101010100011101100110101000001010101110111000000111000010110010010010111010010010011100100010110010000101101000101011111111101000101000011010100000011010011001100100101111000010010010111000101101110000110001110110110001010001101000111101000110010010111010000001100111010110100110010000011000100100111101000000111000110101100001010001000001101010101000000111000000011001101001001100000100010110000111100011011101101100000010000010011101001000011101110100110000110100101100001011110010110101001110010001110000001100101100110100111011011000101010100100101001011011100111001100101001001111011010000010111001101111111100110111010010001111100000101110111001111000101001010110001101101111100001001100100001111000000101001000110011000111000000100000100010010000101111101111111111111010101001000101000001101100111010111011111011111001101000111111011111000110011100010111100011110010 s
b1110001001101110100010010010001101101011100000011111011110011111110100110110101110110111010010100111001010101101100001001011011010110011111000100010001111100011001001000111111100000101010010010101011000111000101111011010101110110000000011110101010100110000001001010000011010110110000000100100100001100011000010110111110010101010000110001111101110000110111001010111110010111010111010010000000110111101011000111111110100110111101110000000110101001111100000110011011111100010111010011100100100110110110100111000001111011111011111001000111100001100000111111000001100111011100011000100100000011001010000111001100001011011110100100101100011011110100101001110100100001001010101001011100101100001010100111011100011101101111100110001000110110101001100000111110010100010101001010101000001100011100011001101101101100000000001100100111110010001011111101011001011111111100011111000110111000000000101111110011110101011010011110010001010001110000011011001010011000110101000100010100001010010010100101100111001001111011011100001010100001010010111000011011001000010011100001001101001011000110110111111100010100110011100000001101000100110110010100001010011100110101010001110110011010100000101010111011100000011100001011001001001011101001001001110010001011001000010110100010101111111110100010100001101010000001101001100110010010111100001001001011100010110111000011000111011011000101000110100011110100011001001011101000000110011101011010011001000001100010010011110100000011100011010110000101000100000110101010100000011100000001100110100100110000010001011000011110001101110110110000001000001001110100100001110111010011000011010010110000101111001011010100111001000111000000110010110011010011101101100010101010010010100101101110011100110010100100111101101000001011100110111111110011011101001000111110000010111011100111100010100101011000110110111110000100110010000111100000010100100011001100011100000010000010001001000010111110111111111111101010100100010100000110110011101011101111101111100110100011111101111100011001110001011110001111001001000010100010100010111110011000 t
b1101010000010011110011001100111 u
b10111011011001111010111010000101 v
b111100011011101111001101110010 w
b10100101010011111111010100111010 x
b1010001000011100101001001111111 y
b10011011000001010110100010001100 z
b11111100000111101100110101011 {
b1011011111000001100110100011001 |
b11111100001011100100110001100 }
b111010011011111110011001100111 ~
#410000
0!
11
05
#415000
1!
b1000011000000111011101101010000 !!
b1001100111111110001011111100101 "!
b1010001000110110111110100101110 #!
b10100101110010100010001101101111 $!
b10110111110100101110010100010001 %!
1&
b111011100001001011010100111100 &!
b11100001110111000010010110101001 '!
b10010110101001111000011101110000 (!
b10100111111001101111000000011110 )!
b10101101011100011010000111110101 *!
13
15
0?
b1010111001110111110110110010000000100101011100011001010011101100111101111101011010100001111101111110000110111110111010001010110000110010001110111010000110001101111011000001001110111011000010111011101010001001010000100011011101111011011001001010011011000100 I
b110110000 Q
b1010101101000010000100011010111 R
b111011100000000000000000 S
b1110010011011000110010000100001 T
b1101111001000000101011101101111 U
b1110001001101110100010010010001 V
b1010101010110001001001000010011 W
b1000100011011011111010010111001 X
b1101010000010011110011001100111 Y
b10111011011001111010111010000101 Z
b11100100010101011110001110010000 [
b11100001001011010100111100001110 \
b1010001000011100101001001111111 ]
b10011011000001010110100010001100 ^
b1 _
b1000100011011011111010010111001 `
b1101010000010011110011001100111 a
b10111011011001111010111010000101 b
b111100011011101111001101110010 c
b11100001001011010100111100001110 d
b1010001000011100101001001111111 e
b10011011000001010110100010001100 f
b11111100000111101100110101011 g
b1101111001000000101011101101111011100100110110001100100001000010010000001001001011101000010000001101001011100110010000001010011010010000100000100110010001101010011011000100000010010000110000101110011011010000010000100100000010100000110100101101110011001010110000101110000011100000110110001100101001000000110000101101011011000010010000001010000011010000111010101101111011000110010000001000001011011101000000000000000000000000000000000000000000000000000000000000000000000011011000001110000101101110110111001100011 h
b1110010011011000110010000100001001000000100100101110100001000000110100101110011001000000101001101001000010000010011001000110101001101100010000001001000011000010111001101101000001000010010000001010000011010010110111001100101011000010111000001110000011011000110010100100000011000010110101101100001001000000101000001101000011101010110111101100011001000000100000101101110100000000000000000000000000000000000000000000000000000000000000000000001101100000111000010110111011011100110001100101010110011111100000110110001 i
b1100101001000000110000101101011 j
b1101111001000000101011101101111 k
b101010110011111100000110110001 l
b1000010111001001101100011001000 m
b11001000010000101110010011011 n
b1110010011011000110010000100 o
b110110000000000000000000 p
b1101100000000000000000 q
b0 r
b1110001001101110100010010010001101101011100000011111011110011111110100110110101110110111010010100111001010101101100001001011011010110011111000100010001111100011001001000111111100000101010010010101011000111000101111011010101110110000000011110101010100110000001001010000011010110110000000100100100001100011000010110111110010101010000110001111101110000110111001010111110010111010111010010000000110111101011000111111110100110111101110000000110101001111100000110011011111100010111010011100100100110110110100111000001111011111011111001000111100001100000111111000001100111011100011000100100000011001010000111001100001011011110100100101100011011110100101001110100100001001010101001011100101100001010100111011100011101101111100110001000110110101001100000111110010100010101001010101000001100011100011001101101101100000000001100100111110010001011111101011001011111111100011111000110111000000000101111110011110101011010011110010001010001110000011011001010011000110101000100010100001010010010100101100111001001111011011100001010100001010010111000011011001000010011100001001101001011000110110111111100010100110011100000001101000100110110010100001010011100110101010001110110011010100000101010111011100000011100001011001001001011101001001001110010001011001000010110100010101111111110100010100001101010000001101001100110010010111100001001001011100010110111000011000111011011000101000110100011110100011001001011101000000110011101011010011001000001100010010011110100000011100011010110000101000100000110101010100000011100000001100110100100110000010001011000011110001101110110110000001000001001110100100001110111010011000011010010110000101111001011010100111001000111000000110010110011010011101101100010101010010010100101101110011100110010100100111101101000001011100110111111110011011101001000111110000010111011100111100010100101011000110110111110000100110010000111100000010100100011001100011100000010000010001001000010111110111111111111101010100100010100000110110011101011101111101111100110100011111101111100011001110001011110001111001001000010100010100010111110011000 s
b10110101110000001111101111001111111010011011010111011011101001010011100101010110110000100101101101011001111100010001000111110001100100100011111110000010101001001010101100011100010111101101010111011000000001111010101010011000000100101000001101011011000000010010010000110001100001011011111001010101000011000111110111000011011100101011111001011101011101001000000011011110101100011111111010011011110111000000011010100111110000011001101111110001011101001110010010011011011010011100000111101111101111100100011110000110000011111100000110011101110001100010010000001100101000011100110000101101111010010010110001101111010010100111010010000100101010100101110010110000101010011101110001110110111110011000100011011010100110000011111001010001010100101010100000110001110001100110110110110000000000110010011111001000101111110101100101111111110001111100011011100000000010111111001111010101101001111001000101000111000001101100101001100011010100010001010000101001001010010110011100100111101101110000101010000101001011100001101100100001001110000100110100101100011011011111110001010011001110000000110100010011011001010000101001110011010101000111011001101010000010101011101110000001110000101100100100101110100100100111001000101100100001011010001010111111111010001010000110101000000110100110011001001011110000100100101110001011011100001100011101101100010100011010001111010001100100101110100000011001110101101001100100000110001001001111010000001110001101011000010100010000011010101010000001110000000110011010010011000001000101100001111000110111011011000000100000100111010010000111011101001100001101001011000010111100101101010011100100011100000011001011001101001110110110001010101001001010010110111001110011001010010011110110100000101110011011111111001101110100100011111000001011101110011110001010010101100011011011111000010011001000011110000001010010001100110001110000001000001000100100001011111011111111111110101010010001010000011011001110101110111110111110011010001111110111110001100111000101111000111100100100001010001010001011111001100001110001001101110100010010010001 t
b1000100011011011111010010111001 u
b1101010000010011110011001100111 v
b10111011011001111010111010000101 w
b111100011011101111001101110010 x
b11100001001011010100111100001110 y
b1010001000011100101001001111111 z
b10011011000001010110100010001100 {
b11111100000111101100110101011 |
b1011011000011000110001010001110 }
b1101010011011011110011010100101 ~
#420000
0!
05
