20_vivado_sim/waveform.vcd
$date
   Wed Jun  4 21:38:26 2025
$end
$version
  2022.2
$end
$timescale
  1ps
$end
$scope module top_level_tb $end
$var reg 1 ! i_clk $end
$var reg 1 " i_rstn $end
$var reg 32 # bus_address [31:0] $end
$var reg 32 $ bus_read_data [31:0] $end
$var reg 32 % bus_write_data [31:0] $end
$var reg 4 & bus_byte_enable [3:0] $end
$var reg 1 ' bus_read_enable $end
$var reg 1 ( bus_write_enable $end
$var reg 32 ) instr [31:0] $end
$var reg 32 * pc [31:0] $end
$var integer 32 + reg_monitor_file [31:0] $end
$var integer 32 , cycle_count [31:0] $end
$scope module dut $end
$var wire 1 - i_clk $end
$var wire 1 . i_rstn $end
$var reg 32 $ bus_read_data [31:0] $end
$var reg 32 # bus_address [31:0] $end
$var reg 32 % bus_write_data [31:0] $end
$var reg 4 & bus_byte_enable [3:0] $end
$var reg 1 ' bus_read_enable $end
$var reg 1 ( bus_write_enable $end
$var reg 32 ) instr [31:0] $end
$var reg 32 * pc [31:0] $end
$scope module cpu_core $end
$var wire 1 - i_clk $end
$var wire 1 . i_rstn $end
$var wire 32 ) i_InstrF [31:0] $end
$var reg 32 * o_PCF [31:0] $end
$var wire 32 $ i_bus_read_data [31:0] $end
$var reg 32 # o_bus_address [31:0] $end
$var reg 32 % o_bus_write_data [31:0] $end
$var reg 4 & o_bus_byte_enable [3:0] $end
$var reg 1 ' o_bus_read_enable $end
$var reg 1 ( o_bus_write_enable $end
$var reg 32 / InstrD [31:0] $end
$var reg 32 0 ALUResultM [31:0] $end
$var reg 32 1 WriteDataM [31:0] $end
$var reg 32 2 ReadDataM [31:0] $end
$var reg 1 3 ZeroE $end
$var reg 1 4 SignE $end
$var reg 1 5 PCJalSrcE $end
$var reg 1 6 PCSrcE $end
$var reg 1 7 ALUSrcAE $end
$var reg 1 8 StallF $end
$var reg 1 9 FlushD $end
$var reg 1 : StallD $end
$var reg 1 ; Funct7b5D $end
$var reg 1 < FlushE $end
$var reg 1 = ResultSrcE0 $end
$var reg 1 > RegWriteM $end
$var reg 1 ? RegWriteW $end
$var reg 2 @ ResultSrcW [1:0] $end
$var reg 2 A ALUSrcBE [1:0] $end
$var reg 3 B ImmSrcD [2:0] $end
$var reg 3 C Funct3D [2:0] $end
$var reg 4 D ALUControlE [3:0] $end
$var reg 2 E ForwardAE [1:0] $end
$var reg 2 F ForwardBE [1:0] $end
$var reg 5 G Rs1D [4:0] $end
$var reg 5 H Rs2D [4:0] $end
$var reg 5 I Rs1E [4:0] $end
$var reg 5 J Rs2E [4:0] $end
$var reg 5 K RdE [4:0] $end
$var reg 5 L RdM [4:0] $end
$var reg 5 M RdW [4:0] $end
$var reg 3 N data_format [2:0] $end
$var reg 7 O OpcodeD [6:0] $end
$var reg 7 P Funct7D [6:0] $end
$var reg 1 Q write_enable $end
$var reg 1 R read_enable $end
$var reg 1 S misaligned_access $end
$var reg 32 T mtvec [31:0] $end
$var reg 32 U mepc [31:0] $end
$var reg 32 V mcause [31:0] $end
$var reg 32 W mstatus [31:0] $end
$var reg 32 X mtval [31:0] $end
$scope module ctrl_unit $end
$var wire 1 - i_clk $end
$var wire 1 . i_rstn $end
$var wire 7 Y i_opD [6:0] $end
$var wire 3 Z i_funct3D [2:0] $end
$var wire 1 [ i_funct7b5D $end
$var reg 3 B o_ImmSrcD [2:0] $end
$var wire 1 \ i_FlushE $end
$var wire 1 ] i_ZeroE $end
$var wire 1 ^ i_SignE $end
$var reg 1 6 o_PCSrcE $end
$var reg 1 5 o_PCJalSrcE $end
$var reg 1 7 o_ALUSrcAE $end
$var reg 2 A o_ALUSrcBE [1:0] $end
$var reg 1 = o_ResultSrcE0 $end
$var reg 4 D o_ALUControlE [3:0] $end
$var reg 1 Q o_MemWriteM $end
$var reg 1 > o_RegWriteM $end
$var reg 1 R o_MemReadM $end
$var reg 1 ? o_RegWriteW $end
$var reg 2 @ o_ResultSrcW [1:0] $end
$var reg 2 _ ResultSrcD [1:0] $end
$var reg 2 ` ALUOpD [1:0] $end
$var reg 2 a ResultSrcE [1:0] $end
$var reg 2 b ResultSrcM [1:0] $end
$var reg 1 c MemWriteD $end
$var reg 1 d MemReadD $end
$var reg 1 e BranchD $end
$var reg 1 f ALUSrcAD $end
$var reg 1 g RegWriteD $end
$var reg 1 h JumpD $end
$var reg 1 i MemWriteE $end
$var reg 1 j MemReadE $end
$var reg 1 k BranchE $end
$var reg 1 l RegWriteE $end
$var reg 1 m JumpE $end
$var reg 2 n ALUSrcBD [1:0] $end
$var reg 4 o ALUControlD [3:0] $end
$var reg 1 p ZeroOp $end
$var reg 1 q SignOp $end
$var reg 1 r BranchOp $end
$scope module maindec_unit $end
$var wire 7 Y i_op [6:0] $end
$var reg 2 _ o_ResultSrc [1:0] $end
$var reg 1 c o_MemWrite $end
$var reg 1 e o_Branch $end
$var reg 1 f o_ALUSrcA $end
$var reg 2 n o_ALUSrcB [1:0] $end
$var reg 1 g o_RegWrite $end
$var reg 1 h o_Jump $end
$var reg 3 B o_ImmSrc [2:0] $end
$var reg 2 ` o_ALUOp [1:0] $end
$var reg 1 d o_MemRead $end
$var reg 15 s controls [14:0] $end
$upscope $end
$scope module aludec_unit $end
$var wire 1 t opb5 $end
$var wire 3 Z funct3 [2:0] $end
$var wire 1 [ funct7b5 $end
$var wire 2 u ALUOp [1:0] $end
$var reg 4 o ALUControl [3:0] $end
$var reg 1 v RtypeSub $end
$upscope $end
$scope module c_pipreg0 $end
$var wire 1 - i_clk $end
$var wire 1 . i_rstn $end
$var wire 1 \ i_clear $end
$var wire 1 w i_RegWriteD $end
$var wire 1 x i_MemWriteD $end
$var wire 1 y i_JumpD $end
$var wire 1 z i_BranchD $end
$var wire 1 { i_ALUSrcAD $end
$var wire 2 | i_ALUSrcBD [1:0] $end
$var wire 2 } i_ResultSrcD [1:0] $end
$var wire 4 ~ i_ALUControlD [3:0] $end
$var wire 1 !! i_MemReadD $end
$var reg 1 l o_RegWriteE $end
$var reg 1 i o_MemWriteE $end
$var reg 1 m o_JumpE $end
$var reg 1 k o_BranchE $end
$var reg 1 7 o_ALUSrcAE $end
$var reg 2 A o_ALUSrcBE [1:0] $end
$var reg 2 a o_ResultSrcE [1:0] $end
$var reg 4 D o_ALUControlE [3:0] $end
$var reg 1 j o_MemReadE $end
$upscope $end
$scope module c_pipreg1 $end
$var wire 1 - i_clk $end
$var wire 1 . i_rstn $end
$var wire 1 "! i_RegWriteE $end
$var wire 1 #! i_MemWriteE $end
$var wire 2 $! i_ResultSrcE [1:0] $end
$var wire 1 %! i_MemReadE $end
$var reg 1 > o_RegWriteM $end
$var reg 1 Q o_MemWriteM $end
$var reg 2 b o_ResultSrcM [1:0] $end
$var reg 1 R o_MemReadM $end
$upscope $end
$scope module c_pipreg2 $end
$var wire 1 - i_clk $end
$var wire 1 . i_rstn $end
$var wire 1 > i_RegWriteM $end
$var wire 2 &! i_ResultSrcM [1:0] $end
$var reg 1 ? o_RegWriteW $end
$var reg 2 @ o_ResultSrcW [1:0] $end
$upscope $end
$upscope $end
$scope module datapath_unit $end
$var wire 1 - i_clk $end
$var wire 1 . i_rstn $end
$var wire 32 ) i_InstrF [31:0] $end
$var wire 1 '! i_StallF $end
$var reg 32 * o_PCF [31:0] $end
$var wire 3 (! i_ImmSrcD [2:0] $end
$var wire 1 )! i_FlushD $end
$var wire 1 *! i_StallD $end
$var reg 7 O o_OpcodeD [6:0] $end
$var reg 3 C o_Funct3D [2:0] $end
$var reg 7 P o_Funct7D [6:0] $end
$var reg 1 ; o_Funct7b5D $end
$var reg 32 / o_InstrD [31:0] $end
$var reg 5 G o_Rs1D [4:0] $end
$var reg 5 H o_Rs2D [4:0] $end
$var wire 1 +! i_PCJalSrcE $end
$var wire 1 ,! i_PCSrcE $end
$var wire 1 -! i_ALUSrcAE $end
$var wire 2 .! i_ALUSrcBE [1:0] $end
$var wire 4 /! i_ALUControlE [3:0] $end
$var wire 2 0! i_ForwardAE [1:0] $end
$var wire 2 1! i_ForwardBE [1:0] $end
$var wire 1 2! i_FlushE $end
$var reg 1 3 o_ZeroE $end
$var reg 1 4 o_SignE $end
$var reg 5 I o_Rs1E [4:0] $end
$var reg 5 J o_Rs2E [4:0] $end
$var reg 5 K o_RdE [4:0] $end
$var wire 32 3! i_ReadDataM [31:0] $end
$var reg 32 0 o_ALUResultM [31:0] $end
$var reg 32 1 o_WriteDataM [31:0] $end
$var reg 3 N o_Funct3M [2:0] $end
$var reg 5 L o_RdM [4:0] $end
$var wire 2 4! i_ResultSrcW [1:0] $end
$var wire 1 5! i_RegWriteW $end
$var reg 5 M o_RdW [4:0] $end
$var reg 32 6! PCNextF [31:0] $end
$var reg 32 7! PCPlus4F [31:0] $end
$var reg 32 8! PCD [31:0] $end
$var reg 32 9! PCPlus4D [31:0] $end
$var reg 32 :! ImmExtD [31:0] $end
$var reg 32 ;! RD1D [31:0] $end
$var reg 32 <! RD2D [31:0] $end
$var reg 32 =! PCE [31:0] $end
$var reg 32 >! PCPlus4E [31:0] $end
$var reg 32 ?! ImmExtE [31:0] $end
$var reg 32 @! RD1E [31:0] $end
$var reg 32 A! RD2E [31:0] $end
$var reg 32 B! PCTargetE [31:0] $end
$var reg 32 C! ALUResultE [31:0] $end
$var reg 32 D! WriteDataE [31:0] $end
$var reg 32 E! BranJumpTargetE [31:0] $end
$var reg 32 F! PCPlus4M [31:0] $end
$var reg 32 G! ResultW [31:0] $end
$var reg 32 H! ReadDataW [31:0] $end
$var reg 32 I! ALUResultW [31:0] $end
$var reg 32 J! PCPlus4W [31:0] $end
$var reg 32 K! SrcAEfor [31:0] $end
$var reg 32 L! SrcAE [31:0] $end
$var reg 32 M! SrcBE [31:0] $end
$var reg 5 N! RdD [4:0] $end
$var reg 3 O! Funct3E [2:0] $end
$scope module jal_r_mux $end
$var wire 32 P! d0 [31:0] $end
$var wire 32 Q! d1 [31:0] $end
$var wire 1 +! s $end
$var reg 32 E! y [31:0] $end
$upscope $end
$scope module pc_mux $end
$var wire 32 R! d0 [31:0] $end
$var wire 32 S! d1 [31:0] $end
$var wire 1 ,! s $end
$var reg 32 6! y [31:0] $end
$upscope $end
$scope module PC_IF $end
$var wire 1 - i_clk $end
$var wire 1 . i_rstn $end
$var wire 1 T! i_en $end
$var wire 32 U! d [31:0] $end
$var reg 32 * q [31:0] $end
$upscope $end
$scope module PC_plus4_adder $end
$var wire 32 * a [31:0] $end
$var wire 32 V! b [31:0] $end
$var reg 32 7! y [31:0] $end
$upscope $end
$scope module pip_reg0 $end
$var wire 1 - i_clk $end
$var wire 1 . i_rstn $end
$var wire 1 )! i_clear $end
$var wire 1 W! i_enable $end
$var wire 32 ) i_InstrF [31:0] $end
$var wire 32 * i_PCF [31:0] $end
$var wire 32 X! i_PCPlus4F [31:0] $end
$var reg 32 / o_InstrD [31:0] $end
$var reg 32 8! o_PCD [31:0] $end
$var reg 32 9! o_PCPlus4D [31:0] $end
$upscope $end
$scope module instr_dec_unit $end
$var wire 32 / i_InstrD [31:0] $end
$var reg 7 O o_Instr_opcodeD [6:0] $end
$var reg 3 C o_Instr_funct3D [2:0] $end
$var reg 7 P o_Instr_funct7D [6:0] $end
$var reg 5 N! o_Instr_rd_addrD [4:0] $end
$var reg 5 G o_Instr_rs1_addrD [4:0] $end
$var reg 5 H o_Instr_rs2_addrD [4:0] $end
$var reg 1 ; o_Instr_funct7b5D $end
$upscope $end
$scope module imm_extend $end
$var wire 25 Y! i_InstrD [31:7] $end
$var wire 3 (! i_ImmSrcD [2:0] $end
$var reg 32 :! o_ImmExtD [31:0] $end
$upscope $end
$scope module rf_unit $end
$var wire 1 - i_clk $end
$var wire 1 . i_rstn $end
$var wire 5 G rs1_addr [4:0] $end
$var wire 5 H rs2_addr [4:0] $end
$var wire 5 M rd_addr [4:0] $end
$var wire 32 Z! rd_data [31:0] $end
$var wire 1 5! rd_wren $end
$var reg 32 ;! rs1_data [31:0] $end
$var reg 32 <! rs2_data [31:0] $end
$var integer 32 [! i [31:0] $end
$upscope $end
$scope module pip_reg1 $end
$var wire 1 - i_clk $end
$var wire 1 . i_rstn $end
$var wire 1 2! i_clear $end
$var wire 32 \! i_RD1D [31:0] $end
$var wire 32 ]! i_RD2D [31:0] $end
$var wire 32 ^! i_PCD [31:0] $end
$var wire 5 G i_Rs1D [4:0] $end
$var wire 5 H i_Rs2D [4:0] $end
$var wire 5 _! i_RdD [4:0] $end
$var wire 32 `! i_ImmExtD [31:0] $end
$var wire 32 a! i_PCPlus4D [31:0] $end
$var wire 3 C i_Funct3D [2:0] $end
$var reg 32 @! o_RD1E [31:0] $end
$var reg 32 A! o_RD2E [31:0] $end
$var reg 32 =! o_PCE [31:0] $end
$var reg 5 I o_Rs1E [4:0] $end
$var reg 5 J o_Rs2E [4:0] $end
$var reg 5 K o_RdE [4:0] $end
$var reg 32 ?! o_ImmExtE [31:0] $end
$var reg 32 >! o_PCPlus4E [31:0] $end
$var reg 3 O! o_Funct3E [2:0] $end
$upscope $end
$scope module forwardA_mux $end
$var wire 32 b! d0 [31:0] $end
$var wire 32 c! d1 [31:0] $end
$var wire 32 0 d2 [31:0] $end
$var wire 2 0! s [1:0] $end
$var reg 32 K! y [31:0] $end
$upscope $end
$scope module forwardB_mux $end
$var wire 32 d! d0 [31:0] $end
$var wire 32 e! d1 [31:0] $end
$var wire 32 0 d2 [31:0] $end
$var wire 2 1! s [1:0] $end
$var reg 32 D! y [31:0] $end
$upscope $end
$scope module srca_mux $end
$var wire 32 f! d0 [31:0] $end
$var wire 32 g! d1 [31:0] $end
$var wire 1 -! s $end
$var reg 32 L! y [31:0] $end
$upscope $end
$scope module srcb_mux $end
$var wire 32 h! d0 [31:0] $end
$var wire 32 i! d1 [31:0] $end
$var wire 32 j! d2 [31:0] $end
$var wire 2 .! s [1:0] $end
$var reg 32 M! y [31:0] $end
$upscope $end
$scope module PC_adder_branch $end
$var wire 32 k! a [31:0] $end
$var wire 32 l! b [31:0] $end
$var reg 32 B! y [31:0] $end
$upscope $end
$scope module alu_u $end
$var wire 32 m! SrcA [31:0] $end
$var wire 32 n! SrcB [31:0] $end
$var wire 4 /! ALUControl [3:0] $end
$var reg 32 C! ALUResult [31:0] $end
$var reg 1 3 Zero $end
$var reg 1 4 Sign $end
$var reg 32 o! Sum [31:0] $end
$var reg 1 p! Overflow $end
$upscope $end
$scope module pip_reg2 $end
$var wire 1 - i_clk $end
$var wire 1 . i_rstn $end
$var wire 32 q! i_ALUResultE [31:0] $end
$var wire 32 r! i_WriteDataE [31:0] $end
$var wire 5 K i_RdE [4:0] $end
$var wire 32 s! i_PCPlus4E [31:0] $end
$var wire 3 t! i_Funct3E [2:0] $end
$var reg 32 0 o_ALUResultM [31:0] $end
$var reg 32 1 o_WriteDataM [31:0] $end
$var reg 5 L o_RdM [4:0] $end
$var reg 32 F! o_PCPlus4M [31:0] $end
$var reg 3 N o_Funct3M [2:0] $end
$upscope $end
$scope module pip_reg3 $end
$var wire 1 - i_clk $end
$var wire 1 . i_rstn $end
$var wire 32 0 i_ALUResultM [31:0] $end
$var wire 32 3! i_ReadDataM [31:0] $end
$var wire 5 L i_RdM [4:0] $end
$var wire 32 u! i_PCPlus4M [31:0] $end
$var reg 32 I! o_ALUResultW [31:0] $end
$var reg 32 H! o_ReadDataW [31:0] $end
$var reg 5 M o_RdW [4:0] $end
$var reg 32 J! o_PCPlus4W [31:0] $end
$upscope $end
$scope module resultmux $end
$var wire 32 v! d0 [31:0] $end
$var wire 32 w! d1 [31:0] $end
$var wire 32 x! d2 [31:0] $end
$var wire 2 4! s [1:0] $end
$var reg 32 G! y [31:0] $end
$upscope $end
$upscope $end
$scope module hazard_unit0 $end
$var wire 5 y! i_Rs1D [4:0] $end
$var wire 5 z! i_Rs2D [4:0] $end
$var wire 5 {! i_Rs1E [4:0] $end
$var wire 5 |! i_Rs2E [4:0] $end
$var wire 5 }! i_RdE [4:0] $end
$var wire 5 ~! i_RdM [4:0] $end
$var wire 5 !" i_RdW [4:0] $end
$var wire 1 "" i_RegWriteM $end
$var wire 1 #" i_RegWriteW $end
$var wire 1 $" i_ResultSrcE0 $end
$var wire 1 %" i_PCSrcE $end
$var reg 2 E o_ForwardAE [1:0] $end
$var reg 2 F o_ForwardBE [1:0] $end
$var reg 1 : o_StallD $end
$var reg 1 8 o_StallF $end
$var reg 1 9 o_FlushD $end
$var reg 1 < o_FlushE $end
$var reg 1 &" lwStallD $end
$upscope $end
$scope module dmem_if_unit $end
$var wire 1 '" read_enable $end
$var wire 1 (" write_enable $end
$var wire 3 )" data_format [2:0] $end
$var wire 32 *" address [31:0] $end
$var wire 32 +" write_data [31:0] $end
$var wire 32 ," read_data [31:0] $end
$var wire 32 -" bus_address [31:0] $end
$var wire 32 $ bus_read_data [31:0] $end
$var wire 32 ." bus_write_data [31:0] $end
$var reg 4 & bus_byte_enable [3:0] $end
$var wire 1 /" bus_read_enable $end
$var wire 1 0" bus_write_enable $end
$var reg 32 1" position_fix [31:0] $end
$var reg 32 2" sign_fix [31:0] $end
$upscope $end
$upscope $end
$scope module dmem_bus_unit $end
$var wire 1 - i_clk $end
$var wire 32 # address [31:0] $end
$var wire 32 % write_data [31:0] $end
$var wire 4 & byte_enable [3:0] $end
$var wire 1 ( write_enable $end
$var wire 1 ' read_enable $end
$var wire 32 3" read_data [31:0] $end
$var reg 32 4" fetched [31:0] $end
$var reg 1 5" is_data_memory $end
$scope module dmem_unit $end
$var wire 1 - i_clk $end
$var wire 15 6" address [14:0] $end
$var wire 4 & byte_ena [3:0] $end
$var wire 32 % data_i [31:0] $end
$var wire 1 7" wren $end
$var wire 32 8" q [31:0] $end
$upscope $end
$upscope $end
$scope module imem_bus_unit $end
$var wire 1 - i_clk $end
$var wire 32 * i_address [31:0] $end
$var wire 32 9" o_read_data [31:0] $end
$var reg 32 :" fetched [31:0] $end
$scope module imem_unit $end
$var wire 1 - i_clk $end
$var wire 8 ;" address [7:0] $end
$var wire 32 <" q [31:0] $end
$upscope $end
$upscope $end
$upscope $end
$scope task number_clock_cycle $end
$var integer 32 =" number [31:0] $end
$scope begin Block67_23 $end
$var reg 32 >" i [31:0] $end
$upscope $end
$upscope $end
$scope task dump_register $end
$var integer 32 ?" reg_index [31:0] $end
$var reg 32 @" expected_result [31:0] $end
$var reg 32 A" reg_value [31:0] $end
$upscope $end
$scope task dump_imemory $end
$var reg 32 B" output_file $end
$var reg 32 C" file [31:0] $end
$scope begin Block203_24 $end
$var reg 32 D" i [31:0] $end
$upscope $end
$upscope $end
$scope task dump_dmemory $end
$var reg 32 E" output_file $end
$var reg 32 F" file [31:0] $end
$scope begin Block236_25 $end
$var reg 32 G" i [31:0] $end
$upscope $end
$upscope $end
$scope task dump_regfile $end
$var reg 32 H" output_file $end
$var reg 32 I" file [31:0] $end
$scope begin Block269_26 $end
$var reg 32 J" i [31:0] $end
$upscope $end
$upscope $end
$scope function decode_instr $end
$var reg 32 K" decode_instr $end
$var reg 32 L" instr [31:0] $end
$upscope $end
$upscope $end
$enddefinitions $end
#0
$dumpvars
0!
0!!
b0 !"
0"
0"!
0""
b0 #
0#!
0#"
bx $
b0 $!
0$"
b0 %
0%!
0%"
b1 &
b0 &!
0&"
0'
0'!
0'"
0(
b0 (!
0("
bx )
0)!
b0 )"
bx *
0*!
b0 *"
b11111111111111111011000111100000 +
0+!
b0 +"
b0 ,
0,!
bx ,"
0-
0-!
b0 -"
0.
b0 .!
b0 ."
b0 /
b0 /!
0/"
b0 0
b0 0!
00"
b0 1
b0 1!
bx 1"
bx 2
02!
bx 2"
13
bx 3!
bx 3"
04
b0 4!
bx 4"
05
05!
15"
06
bx 6!
b0 6"
07
bx 7!
07"
08
b0 8!
bx 8"
09
b0 9!
bx 9"
0:
b0 :!
bx :"
0;
b0 ;!
bx ;"
0<
b0 <!
bx <"
0=
b0 =!
bx ="
0>
b0 >!
b0 >"
0?
b0 ?!
bx ?"
b0 @
b0 @!
bx @"
b0 A
b0 A!
bx A"
b0 B
b0 B!
b0 B"
b0 C
b0 C!
b0 C"
b0 D
b0 D!
b0 D"
b0 E
b0 E!
b0 E"
b0 F
b0 F!
b0 F"
b0 G
b0 G!
b0 G"
b0 H
b0 H!
b0 H"
b0 I
b0 I!
b0 I"
b0 J
b0 J!
b0 J"
b0 K
b0 K!
b0 K"
b0 L
b0 L!
bx L"
b0 M
b0 M!
b0 N
b0 N!
b0 O
b0 O!
b0 P
b0 P!
0Q
b0 Q!
0R
bx R!
xS
b0 S!
b10000 T
1T!
bx U
bx U!
bx V
b100 V!
bx W
1W!
bx X
bx X!
b0 Y
b0 Y!
b0 Z
b0 Z!
0[
bx [!
0\
b0 \!
1]
b0 ]!
0^
b0 ^!
b0 _
b0 _!
b0 `
b0 `!
b0 a
b0 a!
b0 b
b0 b!
0c
b0 c!
0d
b0 d!
0e
b0 e!
0f
b0 f!
0g
b0 g!
0h
b0 h!
0i
b0 i!
0j
b0 j!
0k
b0 k!
0l
b0 l!
0m
b0 m!
b0 n
b0 n!
b0 o
b0 o!
1p
0p!
0q
b0 q!
1r
b0 r!
b0 s
b0 s!
0t
b0 t!
b0 u
b0 u!
0v
b0 v!
0w
b0 w!
0x
b0 x!
0y
b0 y!
0z
b0 z!
0{
b0 {!
b0 |
b0 |!
b0 }
b0 }!
b0 ~
b0 ~!
$end
#5000
1!
b10010001101000101101110110111 )
b0 *
b1 ,
1-
b100 6!
b100 7!
b10010001101000101101110110111 9"
b10010001101000101101110110111 :"
b0 ;"
b10010001101000101101110110111 <"
b0 L"
b100 R!
b100 U!
b100 X!
#10000
0!
1"
0-
1.
b0 ;!
b0 <!
b1010 ="
#15000
1!
0&"
b100 (!
b10000000000000001101100010111 )
b100 *
b10 ,
1-
b10010001101000101101110110111 /
05
b1000 6!
b1000 7!
b100 9!
b10000000000000001101100010111 9"
b10010001101000101000000000000 :!
b10000000000000001101100010111 :"
b0 ;!
b100 ;"
b0 <!
b10000000000000001101100010111 <"
b1 >"
b100 B
b101 C
b1000 G
b0 G!
b11 H
bx H!
b10111 N!
b110111 O
b1001 P
b1000 R!
b1000 U!
b1000 X!
b110111 Y
b1001000110100010110111 Y!
b101 Z
b0 _
b10111 _!
b0 `
b10010001101000101000000000000 `!
b100 a!
0c
0d
0e
1f
1g
0h
b1 n
b0 o
0p
1q
1r
b110010100000000 s
1t
0v
1w
bx w!
b1000 y!
b11 z!
1{
b1 |
#20000
0!
0-
#25000
1!
1"!
0&"
b111100000000000010010011 )
b1000 *
b11 ,
1-
1-!
b1 .!
b10000000000000001101100010111 /
03
05
06
b1100 6!
17
b1100 7!
b100 8!
b1000 9!
b111100000000000010010011 9"
b10000000000000001000000000000 :!
b111100000000000010010011 :"
b0 ;!
b1000 ;"
b0 <!
b111100000000000010010011 <"
b100 >!
b10 >"
b10010001101000101000000000000 ?!
b1 A
b100 B
b10010001101000101000000000000 B!
b1 C
b10010001101000101000000000000 C!
b0 E
b10010001101000101000000000000 E!
b0 F
b0 G
b0 H
b1000 I
b11 J
b10111 K
b0 L!
b10010001101000101101110110111 L"
b10010001101000101000000000000 M!
b10110 N!
b10111 O
b101 O!
b1000 P
b10010001101000101000000000000 P!
b10010001101000101000000000000 Q!
b1100 R!
b10010001101000101000000000000 S!
b1100 U!
b1100 X!
b10111 Y
b1000000000000000110110 Y!
b1 Z
0]
b100 ^!
b0 _
b10110 _!
b0 `
b10000000000000001000000000000 `!
b1000 a!
0c
0d
0e
1f
1g
0h
b10010001101000101000000000000 i!
b10010001101000101000000000000 j!
1l
b10010001101000101000000000000 l!
b10 n
b10010001101000101000000000000 n!
b0 o
b10010001101000101000000000000 o!
1p
b10010001101000101000000000000 q!
1r
b110011000000000 s
b100 s!
0t
b101 t!
0v
b0 y!
b0 z!
b1000 {!
b10 |
b11 |!
b10111 }!
#30000
0!
0-
#35000
1!
1""
b10010001101000101000000000000 #
b11 &
0&"
b0 (!
b1011000000000000100010011 )
b101 )"
b1100 *
b10010001101000101000000000000 *"
b100 ,
b0xxxxxxxxxxxxxxxx ,"
1-
b10010001101000101000000000000 -"
b10 .!
b111100000000000010010011 /
b10010001101000101000000000000 0
b0xxxxxxxxxxxxxxxx 2
b0xxxxxxxxxxxxxxxx 2"
03
b0xxxxxxxxxxxxxxxx 3!
bx 3"
05
05"
06
b10000 6!
b101000000000000 6"
b10000 7!
b1000 8!
bx 8"
b1100 9!
b1011000000000000100010011 9"
b1111 :!
b1011000000000000100010011 :"
b1100 ;"
b0 <!
b1011000000000000100010011 <"
b100 =!
1>
b1000 >!
b11 >"
b10000000000000001000000000000 ?!
b10 A
b0 B
b10000000000000001000000000100 B!
b0 C
b10000000000000001000000000100 C!
b0 D!
b0 E
b10000000000000001000000000100 E!
b0 F
b100 F!
b1111 H
b0 I
b0 J
b10110 K
b0 K!
b10111 L
b10000000000000001101100010111 L"
b10000000000000001000000000100 M!
b101 N
b1 N!
b10011 O
b1 O!
b0 P
b10000000000000001000000000100 P!
b10000000000000001000000000100 Q!
b10000 R!
b10000000000000001000000000100 S!
b10000 U!
b10000 X!
b10011 Y
b11110000000000001 Y!
b0 Z
b1000 ^!
b0 _
b1 _!
b10 `
b1111 `!
b1100 a!
0c
0d
0e
0f
1g
0h
b10000000000000001000000000000 i!
b10000000000000001000000000100 j!
b100 k!
b10000000000000001000000000000 l!
b1 n
b10000000000000001000000000100 n!
b0 o
b10000000000000001000000000100 o!
0p
0q
b10000000000000001000000000100 q!
0r
b100000100001000 s
b1000 s!
0t
b1 t!
b10 u
b100 u!
b1111 z!
0{
b0 {!
b1 |
b0 |!
b10110 }!
b10111 ~!
#40000
0!
0-
#45000
1!
b10111 !"
b10000000000000001000000000100 #
1#"
0&"
b1000001000000110110011 )
b1 )"
b10000 *
b10000000000000001000000000100 *"
b101 ,
bx ,"
1-
0-!
b10000000000000001000000000100 -"
b1 .!
b1011000000000000100010011 /
b10000000000000001000000000100 0
bx 2
bx 2"
03
bx 3!
15!
05"
b10100 6!
b1000000000100 6"
07
b10100 7!
b1100 8!
bx 8"
b10000 9!
b1000001000000110110011 9"
b10110 :!
b1000001000000110110011 :"
b10000 ;"
b0 <!
b1000001000000110110011 <"
b1000 =!
b1100 >!
b100 >"
1?
b1111 ?!
b1 A
b10111 B!
b1111 C!
b0 D!
b0 E
b10111 E!
b0 F
b1000 F!
b10010001101000101000000000000 G!
b10110 H
b0xxxxxxxxxxxxxxxx H!
b10010001101000101000000000000 I!
b1111 J
b100 J!
b1 K
b0 K!
b10110 L
b0 L!
b111100000000000010010011 L"
b10111 M
b1111 M!
b1 N
b10 N!
b0 O!
b10111 P!
b1111 Q!
b10100 R!
b10111 S!
b10100 U!
b10100 X!
b101100000000000010 Y!
b10010001101000101000000000000 Z!
b1100 ^!
b10 _!
b10110 `!
b10000 a!
b10010001101000101000000000000 c!
b10010001101000101000000000000 e!
b1111 i!
b10111 j!
b1000 k!
b1111 l!
b1111 n!
b1111 o!
b1111 q!
b1100 s!
b0 t!
b1000 u!
b10010001101000101000000000000 v!
b0xxxxxxxxxxxxxxxx w!
b100 x!
b10110 z!
b1111 |!
b1 }!
b10110 ~!
#50000
0!
0-
b0 ;!
b0 <!
#55000
1!
b10110 !"
b1111 #
b1000 &
0&"
bx (!
b1000011110001000110011 )
b0 )"
b10100 *
b1111 *"
b110 ,
1-
b1111 -"
b1000001000000110110011 /
b1111 0
b1 1!
bx 2"
03
bx 3"
05
15"
b11000 6!
b1111 6"
b11000 7!
b10000 8!
bx 8"
b10100 9!
b1000011110001000110011 9"
bx :!
b1000011110001000110011 :"
b0 ;!
b10100 ;"
b0 <!
b1000011110001000110011 <"
b1100 =!
b10000 >!
b101 >"
b10110 ?!
bx B
b100010 B!
b10110 C!
b10000000000000001000000000100 D!
b0 E
b100010 E!
b1 F
b1100 F!
b1 G
b10000000000000001000000000100 G!
b10 H
bx H!
b10000000000000001000000000100 I!
b10110 J
b1000 J!
b10 K
b0 K!
b1 L
b1011000000000000100010011 L"
b10110 M
b10110 M!
b0 N
b11 N!
b110011 O
b100010 P!
b10110 Q!
b11000 R!
b100010 S!
b11000 U!
b11000 X!
b110011 Y
b100000100000011 Y!
b10000000000000001000000000100 Z!
b10000 ^!
b0 _
b11 _!
b10 `
bx `!
b10100 a!
0c
b10000000000000001000000000100 c!
0d
0e
b10000000000000001000000000100 e!
0f
1g
0h
b10000000000000001000000000100 h!
b10110 i!
b100010 j!
b1100 k!
b10110 l!
b0 n
b10110 n!
b10110 o!
b10110 q!
b10000000000000001000000000100 r!
b1xxx00000001000 s
b10000 s!
1t
b1100 u!
0v
b10000000000000001000000000100 v!
bx w!
b1000 x!
b1 y!
b10 z!
b0 |
b10110 |!
b10 }!
b1 ~!
#60000
0!
0-
b0 ;!
b0 <!
